analyzing-data-in-science-analysis
…
# A tibble: 3 × 3
  underrepresented     n    prop
  <chr>            <int>   <dbl>
1 NA                   2 0.00606
2 No                 292 0.885  
3 Yes                 36 0.109  

d %>% 
  count(with_which_groups) %>% 
  arrange(desc(n)) %>% 
  filter(with_which_groups != "NA") # 9 African American/black (2.7%), 4 hispanic (1.2%), 2 asian (0.60%), 2 american indian, 1 muslim (0.30%)

# A tibble: 24 × 2
   with_which_groups                               n
   <chr>                                       <int>
 1 Hispanic                                        3
 2 Black                                           2
 3 African American                                1
 4 African American female                         1
 5 African American/black                          1
 6 African Merican/black                           1
 7 African american/arab/muslim/women/disabled     1
 8 African-American                                1
 9 All                                             1
10 American Indian                                 1
# ℹ 14 more rows

d %>% 
  count(state_work) %>%  # PR, outside US, 2 NA
  arrange(desc(n))

# A tibble: 46 × 2
   state_work                               n
   <chr>                                <int>
 1 California                              29
 2 Massachusetts                           19
 3 Wisconsin                               19
 4 Michigan                                17
 5 New York                                16
 6 Arkansas                                13
 7 New Jersey                              13
 8 Texas                                   13
 9 I do not reside in the United States    12
10 Connecticut                             11
# ℹ 36 more rows
…
q98 overall - prior experience

d %>% 
  count(q98)

# A tibble: 117 × 2
   q98                                                                         n
   <chr>                                                                   <int>
 1 Graduate level coursework                                                  10
 2 Graduate level coursework,Research Experience for Teachers (NSF RET)        1
 3 Graduate level coursework,Research experience                              10
 4 Graduate level coursework,Research experience,Research Experience for …     1
 5 Graduate level coursework,Research experience,Teacher professional dev…     6
 6 Graduate level coursework,Taught myself                                     3
 7 Graduate level coursework,Taught myself,Research Experience for Teache…     1
 8 Graduate level coursework,Taught myself,Research experience                 3
 9 Graduate level coursework,Taught myself,Research experience,Research E…     1
10 Graduate level coursework,Taught myself,Research experience,Teacher pr…     3
# ℹ 107 more rows
…
